<?xml version="1.0" encoding="UTF-8" standalone="no"?>
<!-- Created with Type 3.2 font editor (http://cr8software.net) -->

<svg
  width="1000"
  height="1000"
  id="svg2"
  version="1.1"
  >
  <g id="layer1">
  <path
    style="fill:none;stroke:#000000;stroke-width:1px;stroke-linecap:butt;stroke-linejoin:miter;stroke-opacity:1"
    d="m 51,1004 l 500,0 l 0,-700 l -500,0 l 0,700 "
  id="path0" />
  <path
    style="fill:none;stroke:#000000;stroke-width:1px;stroke-linecap:butt;stroke-linejoin:miter;stroke-opacity:1"
    d="m 501,954 l -400,0 l 0,-600 l 400,0 l 0,600 "
  id="path1" />
  <path
    style="fill:none;stroke:#000000;stroke-width:1px;stroke-linecap:butt;stroke-linejoin:miter;stroke-opacity:1"
    d="m 313,756 l -1,-18 c -3,-34 10,-64 45,-99 c 38,-39 68,-73 68,-118 c 0,-51 -41,-106 -131,-106 c -41,0 -83,2 -120,81 l 41,26 c 7,-27 35,-52 64,-52 c 48,1 74,24 74,58 c 0,31 -18,57 -54,93 c -39,41 -53,80 -48,117 l 2,18 l 60,0 "
  id="path2" />
  <path
    style="fill:none;stroke:#000000;stroke-width:1px;stroke-linecap:butt;stroke-linejoin:miter;stroke-opacity:1"
    d="m 287,886 c 27,0 43,-18 43,-40 c 0,-24 -16,-37 -42,-37 c -26,0 -45,13 -45,37 c 0,22 18,40 44,40 "
  id="path3" />
  </g>
</svg>

