<svg xmlns="http://www.w3.org/2000/svg"
					width="1000" height="1000" version="1.1" >

<path d=" M 20 371  L 20 1154  L -20 1154  L -20 371 " />
<path d=" M 60 1020  L 250 1020  L 250 1090  L 60 1090 " />
</svg>
