<svg xmlns="http://www.w3.org/2000/svg"
					width="1000" height="1000" version="1.1" >

<path d=" M 18 1270  L 18 950  L 68 950  L 68 1094  L 142 1094  L 142 950  L 192 950  L 192 1094  L 265 1094  L 265 950  L 315 950  L 315 1270  L 265 1270  L 265 1184  L 192 1184  L 192 1270  L 142 1270  L 142 1184  L 65 1184  L 65 1270 " />
</svg>
