<svg xmlns="http://www.w3.org/2000/svg"
					width="1000" height="1000" version="1.1" >

<path d=" M -114 485  L 70 415  L -114 345  L -114 310  L 114 310  L 114 520  L 18 520  L 18 1134  L -18 1134  L -18 520  L -114 520 " />
</svg>
