<svg xmlns="http://www.w3.org/2000/svg"
					width="1000" height="1000" version="1.1" >

<path d=" M 18 371  L 18 1134  L -18 1134  L -18 371 " />
<path d=" M 216 432  L 87 432  L 153 496  L 130 520  L 24 415  L 130 310  L 153 334  L 87 397  L 217 397 " />
<path d=" M -24 415  L -130 520  L -154 496  L -87 432  L -217 432  L -216 397  L -87 397  L -154 334  L -130 310 " />
<!--
Orig type = "PS"
<path d=" M 18 629  L 18 -134  L -18 -134  L -18 629 " />
<path d=" M 216 568  L 87 568  L 153 504  L 130 480  L 24 585  L 130 690  L 153 666  L 87 603  L 217 603 " />
<path d=" M -24 585  L -130 480  L -154 504  L -87 568  L -217 568  L -216 603  L -87 603  L -154 666  L -130 690 " />
 -->
</svg>
