<svg xmlns="http://www.w3.org/2000/svg"
					width="1000" height="1000" version="1.1" >

<path d=" M 18 1134  L -18 1134  L -18 432  L -147 432  L -81 496  L -104 520  L -210 415  L -104 310  L -81 334  L -147 397  L 18 397 " />
<!--
Orig type = "PS"
<path d=" M 18 -134  L -18 -134  L -18 568  L -147 568  L -81 504  L -104 480  L -210 585  L -104 690  L -81 666  L -147 603  L 18 603 " />
 -->
</svg>
