<svg xmlns="http://www.w3.org/2000/svg"
					width="1000" height="1000" version="1.1" >

<path d=" M 248 700  L 248 932  L 83 932  L 149 996  L 126 1020  L 20 915  L 126 810  L 149 834  L 83 897  L 212 897  L 212 700 " />
<!--
Orig type = "PS"
<path d=" M 248 300  L 248 68  L 83 68  L 149 4  L 126 -20  L 20 85  L 126 190  L 149 166  L 83 103  L 212 103  L 212 300 " />
 -->
</svg>
