<svg xmlns="http://www.w3.org/2000/svg"
					width="1000" height="1000" version="1.1" >

<path d=" M 48 1000  L 48 1192  L 404 1192  L 404 1144  L 96 1144  L 96 1000 " />
<!--
Orig type = "PS"
<path d=" M 48 0  L 48 -192  L 404 -192  L 404 -144  L 96 -144  L 96 0 " />
 -->
</svg>
