<svg xmlns="http://www.w3.org/2000/svg"
					width="1000" height="1000" version="1.1" >

<path d=" M 48 980  L 48 1192  L 952 1192  L 952 980  L 904 980  L 904 1114  L 524 1114  L 524 980  L 476 980  L 476 1114  L 96 1114  L 96 980 " />
</svg>
