<svg xmlns="http://www.w3.org/2000/svg"
					width="1000" height="1000" version="1.1" >

<path d=" M 18 371  L 18 1184  L -18 1184  L -18 371 " />
<path d=" M -57 1112  L -159 1130  L -120 1176  L -143 1200  L -249 1095  L -143 990  L -120 1014  L -159 1059  L -56 1077 " />
<path d=" M 249 1095  L 143 1200  L 119 1176  L 159 1130  L 56 1112  L 57 1077  L 159 1059  L 119 1014  L 143 990 " />
</svg>
