<svg xmlns="http://www.w3.org/2000/svg"
					width="1000" height="1000" version="1.1" >

<path d=" M -20 1134  L -20 490  L -180 380  L -180 310  L 180 310  L 180 380  L 20 490  L 20 1134 " />
</svg>
