<svg xmlns="http://www.w3.org/2000/svg"
					width="1000" height="1000" version="1.1" >

<path d=" M 48 1000  L 48 1192  L 214 1192  L 214 1144  L 96 1144  L 96 1000 " />
<path d=" M 274 1144  L 274 1192  L 452 1192  L 452 1000  L 404 1000  L 404 1144 " />
</svg>
