<svg xmlns="http://www.w3.org/2000/svg"
					width="1000" height="1000" version="1.1" >

<path d=" M 25 1000  L 325 1000  L 325 1200  L 250 1200  L 250 1075  L 100 1075  L 100 1200  L 25 1200 " />
</svg>
